{
  "artifactGenerations" : [ ],
  "artifactId" : "playground-project",
  "groupId" : "ai.relational",
  "metamodelDependencies" : [ ],
  "projectDependencies" : [ ],
  "projectId" : "UAT-31916992",
  "projectStructureVersion" : {
    "extensionVersion" : 1,
    "version" : 11
  },
  "projectType" : "PROTOTYPE"
}